Problem Set 12: NYC Complaints Data
…
The dataset

The dataset is documented on its website. The source data is from NYC Open Data.

Read the documentation before working with the data.

Explore the data

The complaints data:

nycomplaints

# A tibble: 341,299 × 11
   unique_key   account opendate   closedate  complaint_type    descriptor zip  
   <chr>        <chr>   <date>     <date>     <chr>             <chr>      <chr>
 1 NYCC34519748 NYCC34  2025-01-09 NA         Governmental Ope… Voting In… 11385
 2 NYCC34519746 NYCC34  2025-01-09 2025-01-09 Utilities         Con Edison 11237
 3 NYCC34519742 NYCC34  2025-01-08 2025-01-08 Housing and Buil… Heat/Hot … 11249
 4 NYCC34519741 NYCC34  2025-01-06 2025-01-08 Housing and Buil… Heat/Hot … 11211
 5 NYCC34519743 NYCC34  2024-12-23 2025-01-09 Housing and Buil… Maintenan… 11211
 6 NYCC34519744 NYCC34  2024-12-11 2025-01-09 General Welfare   SSI and S… 11211
 7 NYCC34519745 NYCC34  2024-09-05 2025-01-09 Finance           Tax Prepa… 11385
 8 NYCC31505454 NYCC31  2024-06-04 NA         Sanitation        OVERGROWN… <NA> 
 9 NYCC31505447 NYCC31  2024-05-30 NA         <NA>              <NA>       11413
10 NYCC31505450 NYCC31  2024-05-30 NA         <NA>              <NA>       11413
# ℹ 341,289 more rows
# ℹ 4 more variables: borough <chr>, city <chr>, council_dist <chr>,
#   community_board <chr>

Two useful tables

nyc_zips

# A tibble: 211 × 6
     zip borough       city          county          long_county    short_county
   <dbl> <chr>         <chr>         <chr>           <chr>          <chr>       
 1 11368 Queens        Corona        Queens County   Queens County… Queens      
 2 11208 Brooklyn      Brooklyn      Kings County    Kings County,… Kings       
 3 11385 Queens        Ridgewood     Queens County   Queens County… Queens      
 4 11373 Queens        Elmhurst      Queens County   Queens County… Queens      
 5 11226 Brooklyn      Brooklyn      Kings County    Kings County,… Kings       
 6 11236 Brooklyn      Brooklyn      Kings County    Kings County,… Kings       
 7 10467 Bronx         Bronx         Bronx County    Bronx County,… Bronx       
 8 10025 Manhattan     New York      New York County New York Coun… New York    
 9 11207 Brooklyn      Brooklyn      Kings County    Kings County,… Kings       
10 10314 Staten Island Staten Island Richmond County Richmond Coun… Richmond    
# ℹ 201 more rows
…
Checking the top complaints by borough to see if the distribution of complaints varies. We can see that the boroughs vary substantially, even in the most common complaint types. Despite transportation being the overall 2nd most complained about issue, the Bronx and Manhattan see very few complaints in this category. Immigration is a common complaint in Brooklyn and the Bronx, but not in any other borough. Further, sanitation is only a common complaint in Staten island.

housing <- nycomplaints |> 
  filter(complaint_type == "Housing and Buildings") |> 
  group_by(descriptor) |> 
  summarize(total = n()) |> 
  arrange(desc(total))

print(housing, n = 20)

# A tibble: 174 × 2
   descriptor                              total
   <chr>                                   <int>
 1 Seeking an affordable housing/apartment  8510
 2 Lease Issue                              5713
 3 Landlord/Managing Agent Issues           5510
 4 NYCHA Building Maintenance               5193
 5 NYCHA Misc.                              4367
 6 Section 8                                3479
 7 Eviction                                 3456
 8 Building Maintenance                     3271
 9 NYCHA New Application                    2896
10 <NA>                                     2655
11 HPD Housing Lottery                      2420
12 Construction General                     2381
13 Heat/Hot Water                           2306
14 Senior Housing                           1950
15 Repair Assistance                        1804
16 NYCHA Transfers                          1701
17 Maintenance                              1615
18 Rent Increases                           1282
19 Rental Arrears                           1235
20 Violation                                1073
# ℹ 154 more rows
…
